{
	"engineVersion": "5.2.7",
	"compilerVersion": "5.2.7",
	"template": {},
	"target": {
		"current": "web"
	},
	"modules": [
		{
			"name": "egret"
		},
		{
			"name": "game"
		},
		{
			"name": "eui"
		},
		{
			"name": "tween"
		},
		{
			"name": "assetsmanager"
		},
		{
			"name": "promise"
		}
	]
}
