{
	"groups": [
		{
			"name": "preload",
			"keys": "game_bg,pause,card,card_selected,card_2,card_4,card_8,card_16,card_32,card_64,card_128,card_256,card_512,card_1024,card_2048,number_2,number_4,number_8,number_16,number_32,number_64,number_128,number_512,number_1024,number_2048,number_256,e,cycle,air_bubbles,tool_2048,hammer,tool_refresh,lucky_user,relife,relife_btn,relife_enable,close_btn"
		}
	],
	"resources": [
		{
			"name": "game_bg",
			"type": "image",
			"url": "assets/game_bg.png"
		},
		{
			"name": "pause",
			"type": "image",
			"url": "assets/pause.png"
		},
		{
			"name": "card",
			"type": "image",
			"url": "assets/card.png"
		},
		{
			"name": "card_selected",
			"type": "image",
			"url": "assets/card_selected.png"
		},
		{
			"name": "card_selected",
			"type": "image",
			"url": "assets/card_selected.png"
		},
		{
			"name": "card_selected",
			"type": "image",
			"url": "assets/card_selected.png"
		},
		{
			"name": "card_2",
			"type": "image",
			"url": "assets/2@2x.png"
		},
		{
			"name": "card_4",
			"type": "image",
			"url": "assets/4@2x.png"
		},
		{
			"name": "card_8",
			"type": "image",
			"url": "assets/8@2x.png"
		},
		{
			"name": "card_16",
			"type": "image",
			"url": "assets/16@2x.png"
		},
		{
			"name": "card_32",
			"type": "image",
			"url": "assets/32@2x.png"
		},
		{
			"name": "card_64",
			"type": "image",
			"url": "assets/64@2x.png"
		},
		{
			"name": "card_128",
			"type": "image",
			"url": "assets/128@2x.png"
		},
		{
			"name": "card_256",
			"type": "image",
			"url": "assets/256@2x.png"
		},
		{
			"name": "card_512",
			"type": "image",
			"url": "assets/512@2x.png"
		},
		{
			"name": "card_1024",
			"type": "image",
			"url": "assets/1024@2x.png"
		},
		{
			"name": "card_2048",
			"type": "image",
			"url": "assets/2048@2x.png"
		},
		{
			"name": "number_2",
			"type": "image",
			"url": "assets/numberImage/number_2.png"
		},
		{
			"name": "number_4",
			"type": "image",
			"url": "assets/numberImage/number_4.png"
		},
		{
			"name": "number_8",
			"type": "image",
			"url": "assets/numberImage/number_8.png"
		},
		{
			"name": "number_16",
			"type": "image",
			"url": "assets/numberImage/number_16.png"
		},
		{
			"name": "number_32",
			"type": "image",
			"url": "assets/numberImage/number_32.png"
		},
		{
			"name": "number_64",
			"type": "image",
			"url": "assets/numberImage/number_64.png"
		},
		{
			"name": "number_128",
			"type": "image",
			"url": "assets/numberImage/number_128.png"
		},
		{
			"name": "number_256",
			"type": "image",
			"url": "assets/numberImage/number_256.png"
		},
		{
			"name": "number_512",
			"type": "image",
			"url": "assets/numberImage/number_512.png"
		},
		{
			"name": "number_1024",
			"type": "image",
			"url": "assets/numberImage/number_1024.png"
		},
		{
			"name": "number_2048",
			"type": "image",
			"url": "assets/numberImage/number_2048.png"
		},
		{
			"name": "e",
			"type": "image",
			"url": "assets/E@2x.png"
		},
		{
			"name": "cycle",
			"type": "image",
			"url": "assets/cycle.png"
		},
		{
			"name": "air_bubbles",
			"type": "image",
			"url": "assets/air_bubbles.png"
		},
		{
			"name": "tool_2048",
			"type": "image",
			"url": "assets/tool_2048.png"
		},
		{
			"name": "hammer",
			"type": "image",
			"url": "assets/hammer.png"
		},
		{
			"name": "tool_refresh",
			"type": "image",
			"url": "assets/tool_refresh.png"
		},
		{
			"name": "lucky_user",
			"type": "image",
			"url": "assets/lucky_user.png"
		},
		{
			"name": "relife",
			"type": "image",
			"url": "assets/relife.png"
		},
		{
			"name": "relife_btn",
			"type": "image",
			"url": "assets/relife_btn.png"
		},
		{
			"name": "relife_enable",
			"type": "image",
			"url": "assets/relife_btn_enable.png"
		},
		{
			"name": "close_btn",
			"type": "image",
			"url": "assets/close_btn.png"
		}
	]
}
