{"mc":{
	"run":{
		"frameRate":24,
		"events": [
			{
				"name": "@fall",
				"frame": 6
			}
		],
		"labels": [
			{
				"end": 8,
				"name": "start",
				"frame": 2
			}
		],
		"frames":[

			{
			"res":"C346B626",
			"x":0,
			"y":0
			},
			{
			"res":"D850CEE1",
			"x":0,
			"y":0
			},
			{
			"res":"ABBECDF1",
			"x":0,
			"y":0
			},
			{
			"res":"EB3B3BFE",
			"x":0,
			"y":0
			},
			{
			"res":"DC96BFCC",
			"x":0,
			"y":0
			},
			{
			"res":"5D4ADCC3",
			"x":0,
			"y":0
			},
			{
			"res":"AF4B9CF7",
			"x":0,
			"y":0
			},
			{
			"res":"F315AD13",
			"x":0,
			"y":0
			},
			{
			"res":"B91FD5B0",
			"x":0,
			"y":0
			},
			{
			"res":"C346B626",
			"x":0,
			"y":0
			},
			{
			"res":"CC841AB2",
			"x":0,
			"y":0
			},
			{
			"res":"B2CF98C1",
			"x":0,
			"y":0
			},
			{
			"res":"E6ECBECC",
			"x":0,
			"y":0
			},
			{
			"res":"360CA8FC",
			"x":0,
			"y":0
			},
			{
			"res":"BA49D866",
			"x":0,
			"y":0
			},
			{
			"res":"CFB2D79",
			"x":0,
			"y":0
			},
			{
			"res":"4108E729",
			"x":0,
			"y":0
			}
			]
}},
	"file": "hammer_gif.png",
	"res":{
		"B91FD5B0":{"x":1,"y":1,"w":475,"h":259},
		"B2CF98C1":{"x":478,"y":1,"w":475,"h":259},
		"BA49D866":{"x":955,"y":1,"w":475,"h":259},
		"D850CEE1":{"x":1432,"y":1,"w":475,"h":259},
		"CFB2D79":{"x":1,"y":262,"w":475,"h":259},
		"360CA8FC":{"x":478,"y":262,"w":475,"h":259},
		"EB3B3BFE":{"x":955,"y":262,"w":475,"h":259},
		"E6ECBECC":{"x":1432,"y":262,"w":475,"h":259},
		"CC841AB2":{"x":1,"y":523,"w":475,"h":259},
		"AF4B9CF7":{"x":478,"y":523,"w":475,"h":259},
		"4108E729":{"x":955,"y":523,"w":475,"h":259},
		"ABBECDF1":{"x":1432,"y":523,"w":475,"h":259},
		"F315AD13":{"x":1,"y":784,"w":475,"h":259},
		"5D4ADCC3":{"x":478,"y":784,"w":475,"h":259},
		"C346B626":{"x":955,"y":784,"w":475,"h":259},
		"DC96BFCC":{"x":1432,"y":784,"w":475,"h":259}
	}}
