{
	"groups": [
		{
			"name": "proload",
			"keys": "ready_bg,ready_text"
		}
	],
	"resources": [
		{
			"name": "ready_bg",
			"type": "image",
			"url": "assets/ready_bg@2x.png"
		},
		{
			"name": "ready_text",
			"type": "image",
			"url": "assets/ready_text@2x.png"
		}
	]
}
