{
  "groups":[
    {
      "name": "xxl_images",
      "keys": "xxl_images"
    }
  ],
  "resources": [
    {
      "name": "xxl_images",
      "type": "sheet",
      "url": "assets/xxl_images.json"
    }
  ]
}
